\relax 
\providecommand\hyper@newdestlabel[2]{}
\providecommand\HyperFirstAtBeginDocument{\AtBeginDocument}
\HyperFirstAtBeginDocument{\ifx\hyper@anchor\@undefined
\global\let\oldcontentsline\contentsline
\gdef\contentsline#1#2#3#4{\oldcontentsline{#1}{#2}{#3}}
\global\let\oldnewlabel\newlabel
\gdef\newlabel#1#2{\newlabelxx{#1}#2}
\gdef\newlabelxx#1#2#3#4#5#6{\oldnewlabel{#1}{{#2}{#3}}}
\AtEndDocument{\ifx\hyper@anchor\@undefined
\let\contentsline\oldcontentsline
\let\newlabel\oldnewlabel
\fi}
\fi}
\global\let\hyper@last\relax 
\gdef\HyperFirstAtBeginDocument#1{#1}
\providecommand\HyField@AuxAddToFields[1]{}
\providecommand\HyField@AuxAddToCoFields[2]{}
\@writefile{toc}{\beamer@endinputifotherversion {3.33pt}}
\@writefile{nav}{\beamer@endinputifotherversion {3.33pt}}
\@writefile{nav}{\headcommand {\slideentry {0}{0}{1}{1/1}{}{0}}}
\@writefile{nav}{\headcommand {\beamer@framepages {1}{1}}}
\@writefile{nav}{\headcommand {\slideentry {0}{0}{2}{2/2}{}{0}}}
\@writefile{nav}{\headcommand {\beamer@framepages {2}{2}}}
\@writefile{toc}{\beamer@sectionintoc {1}{Overview}{3}{0}{1}}
\@writefile{nav}{\headcommand {\sectionentry {1}{Overview}{3}{Overview}{0}}}
\@writefile{nav}{\headcommand {\beamer@sectionpages {1}{2}}}
\@writefile{nav}{\headcommand {\beamer@subsectionpages {1}{2}}}
\@writefile{toc}{\beamer@subsectionintoc {1}{1}{A concrete example}{3}{0}{1}}
\@writefile{nav}{\headcommand {\beamer@subsectionentry {0}{1}{1}{3}{A concrete example}}\headcommand {\beamer@subsectionpages {3}{2}}}
\@writefile{nav}{\headcommand {\slideentry {1}{1}{1}{3/3}{A concrete example}{0}}}
\@writefile{nav}{\headcommand {\beamer@framepages {3}{3}}}
\@writefile{toc}{\beamer@subsectionintoc {1}{2}{Structure}{4}{0}{1}}
\@writefile{nav}{\headcommand {\beamer@subsectionentry {0}{1}{2}{4}{Structure}}\headcommand {\beamer@subsectionpages {3}{3}}}
\@writefile{nav}{\headcommand {\slideentry {1}{2}{1}{4/4}{Structure}{0}}}
\@writefile{nav}{\headcommand {\beamer@framepages {4}{4}}}
\@writefile{toc}{\beamer@subsectionintoc {1}{3}{Workflow}{5}{0}{1}}
\@writefile{nav}{\headcommand {\beamer@subsectionentry {0}{1}{3}{5}{Workflow}}\headcommand {\beamer@subsectionpages {4}{4}}}
\@writefile{nav}{\headcommand {\slideentry {1}{3}{1}{5/5}{Workflow}{0}}}
\@writefile{nav}{\headcommand {\beamer@framepages {5}{5}}}
\@writefile{toc}{\beamer@sectionintoc {2}{How it works}{6}{0}{2}}
\@writefile{nav}{\headcommand {\sectionentry {2}{How it works}{6}{How it works}{0}}}
\@writefile{nav}{\headcommand {\beamer@sectionpages {3}{5}}}
\@writefile{nav}{\headcommand {\beamer@subsectionpages {5}{5}}}
\@writefile{toc}{\beamer@subsectionintoc {2}{1}{Image processing}{6}{0}{2}}
\@writefile{nav}{\headcommand {\beamer@subsectionentry {0}{2}{1}{6}{Image processing}}\headcommand {\beamer@subsectionpages {6}{5}}}
\@writefile{nav}{\headcommand {\slideentry {2}{1}{1}{6/8}{Image processing}{0}}}
\@writefile{nav}{\headcommand {\beamer@framepages {6}{8}}}
\@writefile{nav}{\headcommand {\slideentry {2}{1}{2}{9/9}{Image processing}{0}}}
\@writefile{nav}{\headcommand {\beamer@framepages {9}{9}}}
\@writefile{nav}{\headcommand {\slideentry {2}{1}{3}{10/10}{Image processing}{0}}}
\@writefile{nav}{\headcommand {\beamer@framepages {10}{10}}}
\@writefile{toc}{\beamer@subsectionintoc {2}{2}{Measurements}{11}{0}{2}}
\@writefile{nav}{\headcommand {\beamer@subsectionentry {0}{2}{2}{11}{Measurements}}\headcommand {\beamer@subsectionpages {6}{10}}}
\@writefile{nav}{\headcommand {\slideentry {2}{2}{1}{11/11}{Measurements}{0}}}
\@writefile{nav}{\headcommand {\beamer@framepages {11}{11}}}
\@writefile{nav}{\headcommand {\slideentry {2}{2}{2}{12/12}{Measurements}{0}}}
\@writefile{nav}{\headcommand {\beamer@framepages {12}{12}}}
\@writefile{nav}{\headcommand {\slideentry {2}{2}{3}{13/13}{Measurements}{0}}}
\@writefile{nav}{\headcommand {\beamer@framepages {13}{13}}}
\@writefile{toc}{\beamer@subsectionintoc {2}{3}{Statistics}{14}{0}{2}}
\@writefile{nav}{\headcommand {\beamer@subsectionentry {0}{2}{3}{14}{Statistics}}\headcommand {\beamer@subsectionpages {11}{13}}}
\@writefile{nav}{\headcommand {\slideentry {2}{3}{1}{14/14}{Statistics}{0}}}
\@writefile{nav}{\headcommand {\beamer@framepages {14}{14}}}
\@writefile{nav}{\headcommand {\slideentry {2}{3}{2}{15/15}{Statistics}{0}}}
\@writefile{nav}{\headcommand {\beamer@framepages {15}{15}}}
\@writefile{nav}{\headcommand {\slideentry {2}{3}{3}{16/16}{Statistics}{0}}}
\@writefile{nav}{\headcommand {\beamer@framepages {16}{16}}}
\@writefile{nav}{\headcommand {\slideentry {2}{3}{4}{17/17}{Statistics}{0}}}
\@writefile{nav}{\headcommand {\beamer@framepages {17}{17}}}
\@writefile{nav}{\headcommand {\slideentry {2}{3}{5}{18/18}{Statistics}{0}}}
\@writefile{nav}{\headcommand {\beamer@framepages {18}{18}}}
\@writefile{toc}{\beamer@sectionintoc {3}{About}{19}{0}{3}}
\@writefile{nav}{\headcommand {\sectionentry {3}{About}{19}{About}{0}}}
\@writefile{nav}{\headcommand {\beamer@sectionpages {6}{18}}}
\@writefile{nav}{\headcommand {\beamer@subsectionpages {14}{18}}}
\@writefile{toc}{\beamer@subsectionintoc {3}{1}{Tango on the web}{19}{0}{3}}
\@writefile{nav}{\headcommand {\beamer@subsectionentry {0}{3}{1}{19}{Tango on the web}}\headcommand {\beamer@subsectionpages {19}{18}}}
\@writefile{nav}{\headcommand {\slideentry {3}{1}{1}{19/19}{Tango on the web}{0}}}
\@writefile{nav}{\headcommand {\beamer@framepages {19}{19}}}
\@writefile{toc}{\beamer@subsectionintoc {3}{2}{Tango team}{20}{0}{3}}
\@writefile{nav}{\headcommand {\beamer@subsectionentry {0}{3}{2}{20}{Tango team}}\headcommand {\beamer@subsectionpages {19}{19}}}
\@writefile{nav}{\headcommand {\slideentry {3}{2}{1}{20/20}{Tango team}{0}}}
\@writefile{nav}{\headcommand {\beamer@framepages {20}{20}}}
\@writefile{nav}{\headcommand {\beamer@partpages {1}{20}}}
\@writefile{nav}{\headcommand {\beamer@subsectionpages {20}{20}}}
\@writefile{nav}{\headcommand {\beamer@sectionpages {19}{20}}}
\@writefile{nav}{\headcommand {\beamer@documentpages {20}}}
\@writefile{nav}{\headcommand {\def \inserttotalframenumber {18}}}
